<?xml version="1.0" encoding="utf-8"?>
<!-- Generator: Adobe Illustrator 24.0.1, SVG Export Plug-In . SVG Version: 6.00 Build 0)  -->
<svg version="1.1" id="Layer_1" xmlns="http://www.w3.org/2000/svg" xmlns:xlink="http://www.w3.org/1999/xlink" x="0px" y="0px"
	 viewBox="0 0 745.7364 353.014" enable-background="new 0 0 745.7364 353.014" xml:space="preserve">
<g>
	<g>
		<g>
			<path fill="#30EFA6" d="M50.8838,118.0684V24.6941c0-1.9234,1.0491-3.672,2.7977-4.7212L86.7297,0.7385
				c3.672-2.0983,8.2183,0.5246,8.2183,4.7212v130.6192c0,4.1966-4.3715,6.8195-8.0435,4.7212l-33.2231-17.8356
				C51.9329,121.9153,50.8838,120.1667,50.8838,118.0684"/>
			<path fill="#30EFA6" d="M109.6362,0.7385l33.0482,19.2344c1.7486,1.0492,2.7977,2.7977,2.7977,4.7212v93.7241
				c0,1.9234-1.0491,3.672-2.6229,4.7212l-33.0482,19.9338c-3.672,2.2732-8.2183-0.3497-8.2183-4.7212V5.4597
				C101.4178,1.2631,105.9642-1.3598,109.6362,0.7385"/>
			<path fill="#30EFA6" d="M11.7155,147.9692L44.5889,128.56c1.5737-1.0492,3.672-1.0492,5.4206-0.1749l260.1892,141.985
				c1.7486,1.0492,2.7977,2.7977,2.7977,4.896l-0.1749,37.4197c0,4.1966-4.3715,6.8195-8.0435,4.7212L11.8904,157.4116
				C8.0435,155.3133,8.0435,150.0675,11.7155,147.9692"/>
			<path fill="#30EFA6" d="M115.5814,147.2698l132.7175-80.26c1.7486-1.0491,3.672-1.0491,5.4206-0.1749l33.2231,18.3601
				c3.672,2.0983,3.8469,7.3441,0.1749,9.4424L153.3508,174.198c-1.5737,1.0491-3.672,1.0491-5.4206,0.1749l-32.1739-17.4858
				C112.0842,154.7887,112.0842,149.3681,115.5814,147.2698"/>
			<path fill="#30EFA6" d="M165.7657,174.5477l125.0237-74.1399c3.672-2.0983,8.2183,0.3497,8.2183,4.5463l0.5246,38.1191
				c0,1.9234-1.0492,3.8469-2.6229,4.7212l-92.5001,54.0312c-1.5737,1.0491-3.672,1.0491-5.4206,0l-33.0482-18.0104
				C162.2685,182.0666,162.0937,176.8208,165.7657,174.5477"/>
			<path fill="#30EFA6" d="M0,206.5468v-38.8186c0-4.1966,4.3715-6.8195,8.0435-4.7212L301.106,323.0024
				c3.672,2.0983,3.8469,7.3441,0.1749,9.4424l-32.6985,19.759c-1.5737,1.0491-3.672,1.0491-5.4206,0.1748L2.7977,211.2679
				C1.0491,210.3936,0,208.4702,0,206.5468"/>
			<path fill="#30EFA6" d="M50.8838,319.1555v-65.0473c0-4.1966,4.3715-6.8195,8.0435-4.7212l33.0482,17.8355
				c1.7486,0.8743,2.7977,2.7977,2.7977,4.7212v66.9707c0,4.1966-4.7212,6.8195-8.2183,4.7212l-33.0482-19.759
				C51.9329,322.8275,50.8838,321.079,50.8838,319.1555"/>
			<path fill="#30EFA6" d="M109.4613,276.6649l33.0482,17.8356c1.7486,0.8743,2.7977,2.7977,2.7977,4.7212v19.759
				c0,1.9234-1.0491,3.672-2.6229,4.7212l-33.0482,19.759c-3.672,2.2732-8.2183-0.3497-8.2183-4.7212v-57.5284
				C101.4178,277.1895,105.7893,274.5667,109.4613,276.6649"/>
		</g>
		<g>
			<g>
				<path fill="#3C4953" d="M405.7987,138.1327c1.7486-1.5737,4.1966-4.0217,6.6446-4.0217c2.7977,0,5.0709,2.2731,5.0709,5.0709
					c0,2.448-1.5737,3.4972-3.3223,5.0709l-19.4093,16.087l23.6059,19.5841c1.9234,1.5737,3.4972,2.7977,3.4972,5.2457
					c0,2.7977-2.2732,5.0709-5.0709,5.0709c-1.9234,0-3.3223-1.224-4.7212-2.448l-25.1796-20.983l-4.1966,3.672v12.7647
					c0,3.4972-0.6994,6.8195-5.0709,6.8195s-5.0709-3.4972-5.0709-6.8195v-62.949c0-3.4972,0.6994-6.8195,5.0709-6.8195
					c4.1966,0,5.0709,3.4972,5.0709,6.8195v37.2448L405.7987,138.1327z"/>
				<path fill="#3C4953" d="M502.8451,182.8965c0,2.2731,0.3497,7.344-4.896,7.344c-4.1966,0-5.0709-3.4972-5.0709-6.9943v-1.7486
					l-8.2184,5.2457c-3.3223,2.0983-5.9452,3.3223-8.7429,3.3223h-7.1692c-2.7977,0-5.9452-0.8743-9.2675-3.672
					c-4.5463-3.8469-4.3715-8.2183-4.5463-13.6389l-1.0492-31.4745c-0.1749-3.672,0.3497-7.5189,5.0709-7.5189
					c4.3715,0,4.7212,3.672,4.896,6.8195l1.0492,30.7751c0.1748,2.2731,0.1748,5.0709,1.0491,6.4698s3.4972,2.0983,5.7703,2.0983
					h3.3223c1.224,0,2.2732-0.3497,3.1474-0.8743l14.6881-9.2675v-28.8516c0-3.4972,0.6994-6.8195,5.0709-6.8195
					c4.1966,0,5.0709,3.4972,5.0709,6.8195v41.966H502.8451z"/>
				<path fill="#3C4953" d="M554.778,171.5307c0,5.5955-0.1749,8.9178,6.6446,8.9178h5.0709c4.0217,0,5.9451-0.3497,6.9943-4.3714
					c0.6994-2.448,2.448-4.0217,5.0709-4.0217c2.7977,0,5.0709,2.0983,5.0709,5.0709c0,2.7977-1.7486,6.2949-3.4972,8.3932
					c-3.672,4.3715-8.3932,5.0709-13.8138,5.0709h-4.8961c-5.0709,0-9.4423-1.224-12.9395-5.0709
					c-3.8469-4.1966-3.672-8.5681-3.672-13.9887v-27.4528h-3.3223c-2.9726,0-6.8195-0.6994-6.8195-5.0709
					c0-4.1966,3.4971-5.0709,6.8195-5.0709h3.3223v-10.3166c0-3.4972,0.6994-6.8195,5.0709-6.8195s5.0709,3.4972,5.0709,6.8195
					v10.3166h16.7864c3.3223,0,6.8195,0.6994,6.8195,5.0709s-4.0217,5.0709-6.8195,5.0709h-16.7864L554.778,171.5307
					L554.778,171.5307z"/>
				<path fill="#3C4953" d="M645.3546,180.2736h7.5189c3.3223,0,6.8195,0.6994,6.8195,5.0709s-4.0217,5.0709-6.8195,5.0709h-25.5294
					c-2.9725,0-6.8195-0.6994-6.8195-5.0709c0-4.1966,3.4972-5.0709,6.8195-5.0709h7.8687v-36.1957h-7.8687
					c-2.9725,0-6.8195-0.6994-6.8195-5.0709c0-4.1966,3.4972-5.0709,6.8195-5.0709h10.4915c5.7703,0,7.3441,1.0491,7.3441,6.9943
					L645.3546,180.2736L645.3546,180.2736z M630.3168,113.8274c0-3.4972,1.9235-4.7212,4.7212-4.7212h5.7703
					c2.7977,0,4.7212,1.224,4.7212,4.7212v4.7212c0,3.4972-1.9235,4.7212-4.7212,4.7212h-5.9452
					c-2.7977,0-4.7211-1.224-4.7211-4.7212v-4.7212H630.3168z"/>
				<path fill="#3C4953" d="M713.3745,144.0779c-2.9726,0-6.8195-0.6994-6.8195-5.0709c0-4.1966,3.4971-5.0709,6.8195-5.0709
					h13.8138c5.2458,0,8.9178,0.5246,12.9395,4.5463c3.8469,3.8469,4.3715,6.8195,4.5463,11.8904l1.0492,34.0974
					c0.1748,2.9726-1.3989,5.7703-4.7212,5.7703c-2.6229,0-5.2457-2.0983-5.0709-5.0709l-6.8195,3.4972
					c-2.7977,1.3989-2.9726,1.3989-6.1201,1.3989h-9.6172c-4.5463,0-7.6938-0.5246-11.3658-3.4972
					c-4.1966-3.4972-5.2458-7.1692-5.2458-12.2401v-4.1966c0-4.7212,1.2241-7.8686,4.8961-11.1909
					c3.4972-2.9726,7.3441-3.672,11.7155-3.672h21.5076v-2.2732c0-7.5189-1.7486-8.7429-8.9178-8.7429h-12.5898V144.0779z
					 M713.1996,165.2358c-2.7977,0-6.6446,0.6994-6.6446,4.3714v6.6446c0,3.3223,4.0217,4.0217,6.4697,4.0217h11.0161
					l11.0161-5.7703v-2.0983c0-5.5955-1.5737-7.1692-7.1692-7.1692H713.1996L713.1996,165.2358z"/>
			</g>
		</g>
		<g>
			<path fill="#3C4953" d="M381.8497,222.9473h7.89c1.2138,0,2.3232,0.3761,3.3266,1.1271c1.0047,0.751,1.5071,1.5173,1.5071,2.2976
				c0,0.5202-0.1836,0.9614-0.5533,1.3222c-0.3672,0.3608-0.8046,0.5419-1.3108,0.5419c-0.4628,0-0.9576-0.2601-1.4841-0.7803
				c-0.5279-0.5202-1.0379-0.7803-1.5288-0.7803h-7.8466c-0.3175,0-0.5776,0.1046-0.7803,0.3149
				c-0.2028,0.2091-0.3035,0.4947-0.3035,0.8555c0,0.1594,0.065,0.3251,0.1951,0.4986c0.1301,0.1734,0.2894,0.3035,0.4769,0.3902
				l10.0792,4.2918c1.0698,0.4769,1.9151,1.1807,2.5361,2.114c0.6209,0.9308,0.9321,1.975,0.9321,3.1315
				c0,1.5466-0.5559,2.8714-1.669,3.9781c-1.1131,1.1042-2.4353,1.6575-3.9667,1.6575h-7.3264c-1.3005,0-2.522-0.38-3.6632-1.1373
				c-1.1412-0.7599-1.7124-1.5211-1.7124-2.2874c0-0.4909,0.1772-0.9244,0.5317-1.3005c0.3532-0.3761,0.7829-0.5636,1.2891-0.5636
				c0.4042,0,0.9537,0.2601,1.6474,0.7803c0.6936,0.5202,1.3299,0.7803,1.9074,0.7803h7.3264c0.5062,0,0.9499-0.1874,1.3324-0.5636
				c0.3838-0.3761,0.575-0.8237,0.575-1.3439c0-0.3902-0.1084-0.7472-0.3251-1.0736c-0.2168-0.3239-0.5126-0.5597-0.8887-0.7038
				l-10.0142-4.3568c-0.9244-0.3902-1.655-0.9831-2.1893-1.7774c-0.5342-0.7944-0.802-1.6614-0.802-2.6011
				c0-1.3299,0.4692-2.4634,1.4089-3.4031C379.3863,223.4165,380.5198,222.9473,381.8497,222.9473z"/>
			<path fill="#3C4953" d="M410.8428,222.9473h4.1184c0.621,0,1.2393,0.1122,1.8527,0.3353
				c0.6146,0.2244,1.1819,0.5457,1.7022,0.9652l1.604,1.2789c0.6069,0.5062,1.0914,1.1412,1.4523,1.9075s0.5419,1.553,0.5419,2.3627
				v7.283c0,0.7943-0.1772,1.5683-0.5317,2.3193c-0.3532,0.751-0.8415,1.3796-1.4625,1.8858l-1.604,1.3439
				c-0.5202,0.4042-1.0876,0.7191-1.7022,0.9422c-0.6133,0.2244-1.2317,0.3366-1.8527,0.3366h-4.1184
				c-0.6209,0-1.2278-0.1084-1.8207-0.3251c-0.5929-0.2168-1.1565-0.5342-1.6907-0.9537l-1.604-1.3439
				c-0.6209-0.5062-1.1093-1.1348-1.4625-1.8858c-0.3545-0.751-0.5317-1.5249-0.5317-2.3193v-7.283
				c0-0.8097,0.1772-1.5964,0.5317-2.3627c0.3532-0.7663,0.8416-1.4013,1.4625-1.9075l1.604-1.2789
				c0.5342-0.4335,1.0978-0.7587,1.6907-0.9754C409.615,223.0557,410.2219,222.9473,410.8428,222.9473z M410.8862,226.6322
				c-0.1874,0-0.3787,0.0395-0.575,0.1186c-0.1938,0.0803-0.3927,0.1925-0.5955,0.3366l-1.5823,1.3222
				c-0.2028,0.1594-0.3647,0.3647-0.4871,0.6184c-0.1237,0.2525-0.1849,0.5087-0.1849,0.7689v7.283
				c0,0.2601,0.0612,0.5126,0.1849,0.7587c0.1224,0.2461,0.2843,0.4475,0.4871,0.6069l1.604,1.3439
				c0.1734,0.1301,0.357,0.227,0.5533,0.2933c0.1938,0.0638,0.3927,0.0969,0.5955,0.0969h4.075
				c0.2028,0,0.4042-0.0357,0.6069-0.1084s0.3902-0.1734,0.5636-0.3035l1.5823-1.3222c0.1874-0.1441,0.3468-0.3468,0.4769-0.6069
				c0.13-0.2601,0.1951-0.5126,0.1951-0.7587v-7.283c0-0.2601-0.0612-0.5164-0.1849-0.7689
				c-0.1224-0.2537-0.278-0.4526-0.4654-0.5967l-1.6257-1.3439c-0.1874-0.1441-0.38-0.2563-0.5738-0.3366
				c-0.1964-0.0791-0.3876-0.1186-0.575-0.1186H410.8862z"/>
			<path fill="#3C4953" d="M441.8748,215.1441h4.3135c0.6209,0,1.1233,0.1734,1.5071,0.5202
				c0.3825,0.3468,0.5738,0.7944,0.5738,1.3439c0,0.5342-0.1951,0.9792-0.5852,1.3324c-0.3902,0.3545-0.8887,0.5317-1.4956,0.5317
				h-4.3135c-0.751,0-1.4051,0.2818-1.9623,0.8454c-0.5559,0.5636-0.8339,1.2138-0.8339,1.9508v1.2789h3.4681
				c0.6209,0,1.1233,0.1734,1.5071,0.5202c0.3825,0.3468,0.5738,0.7944,0.5738,1.3439s-0.1951,0.9971-0.5853,1.3439
				c-0.3902,0.3468-0.8887,0.5202-1.4956,0.5202h-3.4681v15.1513c0,0.6209-0.1734,1.1233-0.5202,1.5071
				c-0.3468,0.3825-0.7943,0.5738-1.3439,0.5738c-0.5495,0-0.9971-0.1951-1.3439-0.5852c-0.3468-0.3902-0.5202-0.8887-0.5202-1.4956
				v-15.1513h-1.5606c-0.6363,0-1.1412-0.1696-1.5173-0.5087c-0.3761-0.3404-0.5636-0.7918-0.5636-1.3554
				c0-0.5342,0.1951-0.9792,0.5852-1.3324c0.3902-0.3545,0.8887-0.5317,1.4956-0.5317h1.5606v-1.2789
				c0-1.7914,0.6426-3.3279,1.9291-4.6055C438.5661,215.7829,440.0974,215.1441,441.8748,215.1441z"/>
			<path fill="#3C4953" d="M465.319,218.7422v4.2051h7.0663c0.6209,0,1.1233,0.1734,1.5058,0.5202
				c0.3838,0.3468,0.575,0.7944,0.575,1.3439s-0.1951,0.9971-0.5852,1.3439c-0.3902,0.3468-0.8887,0.5202-1.4956,0.5202h-7.0663
				v11.7266c0,0.5062,0.1696,0.9282,0.5088,1.2674c0.3404,0.3404,0.7625,0.51,1.2687,0.51h3.6848
				c0.3902,0,0.737-0.1122,1.0404-0.3366c0.3035-0.2231,0.5342-0.5444,0.6936-0.9639c0.014-0.0434,0.051-0.1441,0.1084-0.3035
				c0.3328-1.0264,0.9321-1.539,1.7991-1.539c0.5062,0,0.9359,0.1772,1.2891,0.5317c0.3545,0.3532,0.5317,0.7612,0.5317,1.224
				c0,1.2865-0.5495,2.4608-1.6473,3.5217c-1.0978,1.0634-2.3843,1.5938-3.8583,1.5938h-3.6415
				c-1.5313,0-2.8395-0.5457-3.9233-1.6371c-1.0838-1.0902-1.6257-2.3945-1.6257-3.9118v-11.6832h-1.5607
				c-0.6362,0-1.1411-0.1696-1.5173-0.5087c-0.3761-0.3404-0.5636-0.7918-0.5636-1.3554c0-0.5342,0.1951-0.9792,0.5853-1.3324
				c0.3901-0.3545,0.8887-0.5317,1.4956-0.5317h1.5607v-4.2051c0-0.6362,0.1696-1.1348,0.5087-1.4956
				c0.3404-0.3608,0.7918-0.5419,1.3554-0.5419c0.5495,0,1.0047,0.1874,1.3656,0.5636
				C465.1379,217.6444,465.319,218.1353,465.319,218.7422z"/>
			<path fill="#3C4953" d="M488.3743,224.9632l0.3035,10.5994l1.2355,3.9883l2.406-4.2484v-4.0534
				c0-0.6069,0.1734-1.0978,0.5202-1.474c0.3468-0.3761,0.7943-0.5636,1.3439-0.5636c0.5342,0,0.9792,0.1951,1.3324,0.5853
				c0.3545,0.3902,0.5317,0.8747,0.5317,1.4523v4.0534l2.341,4.2484l1.2572-3.9883l0.3468-10.5994
				c0.0293-0.621,0.2129-1.1131,0.5521-1.474c0.3404-0.3608,0.7918-0.5419,1.3553-0.5419c0.5202,0,0.9537,0.1913,1.3006,0.5751
				c0.3468,0.3825,0.5202,0.8632,0.5202,1.4408v0.0867l-0.3468,11.0112l-1.9075,6.3293c-0.1441,0.5342-0.4016,0.9206-0.7689,1.1603
				c-0.3698,0.2372-0.8861,0.357-1.5504,0.357h-1.4523c-0.3468,0-0.6541-0.0905-0.9218-0.2703
				c-0.2665-0.1811-0.5088-0.459-0.7255-0.8352l-1.8641-3.1647l-1.8641,3.1647c-0.2167,0.3608-0.4654,0.6362-0.7484,0.8237
				c-0.2805,0.1874-0.5954,0.2818-0.9423,0.2818h-1.4306c-0.6503,0-1.159-0.1198-1.5288-0.357
				c-0.3672-0.2397-0.6248-0.626-0.7689-1.1603l-1.9075-6.3293l-0.3468-11.0112v-0.0867c0-0.5929,0.1658-1.0761,0.4985-1.4523
				c0.3328-0.3761,0.751-0.5636,1.2572-0.5636c0.5776,0,1.0443,0.1849,1.3974,0.5521
				C488.1537,223.8692,488.3449,224.3562,488.3743,224.9632z"/>
			<path fill="#3C4953" d="M517.801,222.9473h6.6111c1.5033,0,2.7885,0.5202,3.8583,1.5607s1.6333,2.355,1.6907,3.945
				l0.4986,13.3306v0.0867c0,0.5776-0.1772,1.0621-0.5317,1.4523c-0.3531,0.3902-0.7828,0.5852-1.2891,0.5852
				c-0.5202,0-0.946-0.1632-1.2789-0.4871c-0.3328-0.3264-0.5419-0.7841-0.6286-1.377l-2.1675,1.3656
				c-0.2308,0.1441-0.5024,0.2639-0.8122,0.3583c-0.3111,0.0931-0.5891,0.1402-0.8351,0.1402h-5.2889
				c-1.5313,0-2.8395-0.5381-3.9233-1.6142c-1.0837-1.0774-1.6257-2.3741-1.6257-3.8914v-2.0809
				c0-1.5173,0.5496-2.8217,1.6474-3.9118c1.0978-1.0914,2.3983-1.6371,3.9016-1.6371h7.1096c0.3035,0,0.5891,0.0255,0.8555,0.0765
				c0.2678,0.0497,0.524,0.1262,0.7701,0.2269l-0.1301-2.6228c-0.0293-0.5342-0.2091-0.9652-0.5419-1.2891
				c-0.3328-0.3264-0.7587-0.4883-1.2789-0.4883h-6.6111c-0.621,0-1.1093-0.1658-1.4625-0.4985
				c-0.3545-0.3328-0.5317-0.788-0.5317-1.3656c0-0.5495,0.1849-0.9971,0.5521-1.3439
				C516.7286,223.1207,517.2081,222.9473,517.801,222.9473z M517.5842,234.5005c-0.4629,0-0.8747,0.181-1.2355,0.5419
				s-0.5419,0.788-0.5419,1.2789v2.0809c0,0.4769,0.1772,0.8925,0.5317,1.247c0.3531,0.3532,0.7828,0.5304,1.2891,0.5304h4.9637
				l4.01-2.2543l-0.0434-1.6474c0-0.5062-0.181-0.9282-0.5419-1.2674c-0.3608-0.3404-0.788-0.51-1.2789-0.51H517.5842z"/>
			<path fill="#3C4953" d="M542.8938,225.0065v1.9508l3.0996-2.7095c0.4628-0.4042,1.0149-0.7229,1.6575-0.9537
				c0.6439-0.2308,1.2763-0.3468,1.8973-0.3468h2.4493c1.5173,0,2.8217,0.5419,3.9131,1.6257
				c1.0902,1.0838,1.6359,2.3767,1.6359,3.8799v0.8454c0,0.621-0.1734,1.1233-0.5203,1.5071
				c-0.3468,0.3825-0.7943,0.5738-1.3439,0.5738s-0.9971-0.1951-1.3439-0.5853c-0.3469-0.3902-0.5203-0.8887-0.5203-1.4956v-0.8454
				c0-0.4769-0.181-0.8989-0.5419-1.2687c-0.3608-0.3672-0.788-0.5521-1.2789-0.5521h-2.4493c-0.2028,0-0.4373,0.0548-0.7039,0.1619
				c-0.2678,0.1097-0.4743,0.2359-0.6183,0.38l-5.3322,4.7036v9.9492c0,0.6209-0.1735,1.1233-0.5203,1.5071
				c-0.3468,0.3825-0.7943,0.5738-1.3439,0.5738s-0.9971-0.1951-1.3439-0.5852c-0.3469-0.3902-0.5203-0.8887-0.5203-1.4956v-16.8203
				c0-0.6362,0.1696-1.1373,0.5088-1.5071c0.3404-0.3672,0.7917-0.5521,1.3553-0.5521c0.5496,0,0.9971,0.1913,1.3439,0.5751
				C542.7203,223.9049,542.8938,224.3996,542.8938,225.0065z"/>
			<path fill="#3C4953" d="M573.3609,222.9473h4.1183c0.621,0,1.2394,0.1122,1.8527,0.3353
				c0.6146,0.2244,1.1819,0.5457,1.7021,0.9652l1.604,1.2789c0.6069,0.5062,1.0914,1.1412,1.4523,1.9075s0.5419,1.553,0.5419,2.3627
				v4.4435c0,0.5342-0.1951,0.9792-0.5853,1.3337c-0.3901,0.3532-0.8887,0.5304-1.4956,0.5304h-12.5719v0.9754
				c0,0.2601,0.0612,0.5126,0.1849,0.7587c0.1224,0.2461,0.2843,0.4475,0.4871,0.6069l1.5823,1.3439
				c0.1734,0.1301,0.3506,0.227,0.5317,0.2933c0.1797,0.0638,0.3927,0.0969,0.6388,0.0969h9.1472
				c0.6209,0,1.1233,0.1734,1.5058,0.5202c0.3838,0.3468,0.5751,0.7943,0.5751,1.3439s-0.1951,0.9971-0.5853,1.3439
				c-0.3901,0.3468-0.8887,0.5202-1.4956,0.5202h-9.1905c-0.621,0-1.2279-0.1084-1.8208-0.3251
				c-0.5929-0.2168-1.1564-0.5342-1.6907-0.9537l-1.604-1.3439c-0.621-0.5062-1.1093-1.1348-1.4625-1.8858
				c-0.3545-0.751-0.5317-1.5249-0.5317-2.3193v-7.283c0-0.8097,0.1772-1.5964,0.5317-2.3627
				c0.3531-0.7663,0.8415-1.4013,1.4625-1.9075l1.604-1.2789c0.5342-0.4335,1.0978-0.7587,1.6907-0.9754
				C572.133,223.0557,572.7399,222.9473,573.3609,222.9473z M573.4042,226.6322c-0.1874,0-0.3787,0.0395-0.5751,0.1186
				c-0.1938,0.0803-0.3927,0.1925-0.5954,0.3366l-1.5823,1.3222c-0.2028,0.1594-0.3647,0.3647-0.4871,0.6184
				c-0.1237,0.2525-0.1849,0.5087-0.1849,0.7689v2.5144h10.9246v-2.5144c0-0.2601-0.0612-0.5164-0.1849-0.7689
				c-0.1224-0.2537-0.278-0.4526-0.4653-0.5967l-1.6257-1.3439c-0.1874-0.1441-0.3799-0.2563-0.5737-0.3366
				c-0.1964-0.0791-0.3876-0.1186-0.5751-0.1186H573.4042z"/>
		</g>
	</g>
</g>
</svg>
