<svg xmlns="http://www.w3.org/2000/svg" xmlns:xlink="http://www.w3.org/1999/xlink" version="1.1" viewBox="249.07 190.67 342.83 213.18">
<g enable-background="new">
<g id="Layer-1" data-name="Layer 1">
<path transform="matrix(1,0,0,-1,252.0655,315.3257)" d="M 0 0 L 0 29.4 L 5.25 29.4 L 15.204 9.828 L 25.116 29.4 L 30.366 29.4 L 30.366 0 L 25.914 0 L 25.914 21.714 L 16.926 4.2 L 13.482 4.2 L 4.452 21.672 L 4.452 0 Z "/>
<clipPath id="cp0">
<path transform="matrix(1,0,0,-1,0,595.276)" d="M 0 595.276 L 841.89 595.276 L 841.89 0 L 0 0 Z "/>
</clipPath>
<g clip-path="url(#cp0)">
<path transform="matrix(1,0,0,-1,296.1651,312.2183)" d="M 0 0 C 1.204 0 2.219 .287 3.045 .861 C 3.871 1.435 4.515 2.198 4.977 3.15 C 5.439 4.102 5.726 5.152 5.838 6.301 L .882 6.301 C -.882 6.301 -2.135 5.992 -2.877 5.376 C -3.619 4.76 -3.99 3.99 -3.99 3.066 C -3.99 2.114 -3.633 1.365 -2.919 .819 C -2.205 .273 -1.232 0 0 0 M -.882 -3.611 C -2.646 -3.611 -4.102 -3.317 -5.25 -2.729 C -6.398 -2.142 -7.252 -1.364 -7.812 -.398 C -8.373 .567 -8.652 1.624 -8.652 2.772 C -8.652 4.788 -7.868 6.385 -6.3 7.561 C -4.732 8.736 -2.492 9.324 .42 9.324 L 5.88 9.324 L 5.88 9.702 C 5.88 11.326 5.439 12.544 4.557 13.356 C 3.675 14.168 2.534 14.575 1.134 14.575 C -.099 14.575 -1.169 14.273 -2.079 13.671 C -2.989 13.069 -3.542 12.181 -3.738 11.004 L -8.19 11.004 C -8.05 12.517 -7.539 13.812 -6.657 14.89 C -5.775 15.967 -4.655 16.793 -3.297 17.368 C -1.939 17.941 -.448 18.229 1.176 18.229 C 4.088 18.229 6.342 17.465 7.938 15.939 C 9.534 14.413 10.332 12.334 10.332 9.702 L 10.332 -3.107 L 6.468 -3.107 L 6.09 .462 C 5.502 -.687 4.647 -1.652 3.528 -2.436 C 2.408 -3.219 .938 -3.611 -.882 -3.611 "/>
<path transform="matrix(1,0,0,-1,311.7047,315.3257)" d="M 0 0 L 0 30.24 L 4.452 30.24 L 4.452 12.222 L 12.432 20.832 L 17.766 20.832 L 8.904 11.382 L 19.068 0 L 13.44 0 L 4.452 10.668 L 4.452 0 Z "/>
<path transform="matrix(1,0,0,-1,342.3648,297.64363)" d="M 0 0 C -1.484 0 -2.8 -.441 -3.948 -1.324 C -5.097 -2.206 -5.796 -3.529 -6.048 -5.292 L 5.712 -5.292 C 5.628 -3.668 5.054 -2.38 3.99 -1.428 C 2.925 -.477 1.596 0 0 0 M 0 -18.186 C -2.044 -18.186 -3.857 -17.731 -5.439 -16.822 C -7.021 -15.912 -8.26 -14.645 -9.156 -13.02 C -10.053 -11.397 -10.5 -9.506 -10.5 -7.35 C -10.5 -5.167 -10.059 -3.249 -9.177 -1.596 C -8.295 .056 -7.063 1.344 -5.481 2.268 C -3.899 3.192 -2.058 3.654 .042 3.654 C 2.085 3.654 3.864 3.198 5.376 2.289 C 6.888 1.378 8.064 .168 8.904 -1.344 C 9.744 -2.856 10.164 -4.523 10.164 -6.342 C 10.164 -6.623 10.157 -6.923 10.143 -7.246 C 10.128 -7.568 10.107 -7.924 10.08 -8.316 L -6.132 -8.316 C -5.992 -10.333 -5.328 -11.866 -4.137 -12.916 C -2.947 -13.965 -1.568 -14.491 0 -14.491 C 1.26 -14.491 2.316 -14.204 3.171 -13.629 C 4.025 -13.056 4.662 -12.279 5.082 -11.298 L 9.534 -11.298 C 8.974 -13.258 7.86 -14.897 6.195 -16.212 C 4.529 -17.529 2.463 -18.186 0 -18.186 "/>
<path transform="matrix(1,0,0,-1,357.1485,315.3257)" d="M 0 0 L 0 20.832 L 3.99 20.832 L 4.368 16.884 C 5.096 18.255 6.111 19.341 7.413 20.139 C 8.715 20.937 10.29 21.336 12.138 21.336 L 12.138 16.674 L 10.92 16.674 C 9.688 16.674 8.589 16.471 7.623 16.064 C 6.657 15.658 5.887 14.973 5.313 14.007 C 4.739 13.041 4.452 11.703 4.452 9.996 L 4.452 0 Z "/>
<path transform="matrix(1,0,0,-1,381.4239,315.8296)" d="M 0 0 C -2.632 0 -4.802 .644 -6.51 1.932 C -8.218 3.219 -9.198 4.928 -9.45 7.056 L -4.956 7.056 C -4.732 6.104 -4.2 5.284 -3.36 4.599 C -2.52 3.912 -1.414 3.569 -.042 3.569 C 1.302 3.569 2.282 3.85 2.898 4.409 C 3.514 4.97 3.822 5.613 3.822 6.342 C 3.822 7.405 3.395 8.127 2.541 8.505 C 1.687 8.883 .504 9.226 -1.008 9.533 C -2.184 9.786 -3.354 10.122 -4.515 10.542 C -5.677 10.962 -6.643 11.557 -7.413 12.327 C -8.183 13.097 -8.568 14.14 -8.568 15.456 C -8.568 17.276 -7.868 18.795 -6.468 20.013 C -5.068 21.231 -3.108 21.84 -.588 21.84 C 1.736 21.84 3.619 21.279 5.061 20.16 C 6.503 19.04 7.35 17.458 7.602 15.414 L 3.318 15.414 C 3.178 16.31 2.765 17.01 2.079 17.514 C 1.393 18.018 .476 18.27 -.672 18.27 C -1.792 18.27 -2.66 18.039 -3.276 17.577 C -3.892 17.114 -4.2 16.52 -4.2 15.792 C -4.2 15.063 -3.773 14.489 -2.919 14.069 C -2.065 13.649 -.938 13.271 .462 12.936 C 1.862 12.627 3.157 12.271 4.347 11.864 C 5.537 11.458 6.496 10.863 7.224 10.08 C 7.952 9.296 8.316 8.147 8.316 6.636 C 8.344 4.731 7.609 3.149 6.111 1.89 C 4.613 .63 2.576 0 0 0 "/>
<path transform="matrix(1,0,0,-1,405.5738,311.9663)" d="M 0 0 C 1.904 0 3.472 .651 4.704 1.953 C 5.936 3.256 6.552 4.956 6.552 7.057 C 6.552 8.428 6.272 9.646 5.712 10.71 C 5.152 11.774 4.382 12.607 3.402 13.209 C 2.422 13.812 1.288 14.113 0 14.113 C -1.904 14.113 -3.465 13.455 -4.683 12.139 C -5.901 10.822 -6.51 9.128 -6.51 7.057 C -6.51 4.956 -5.901 3.256 -4.683 1.953 C -3.465 .651 -1.904 0 0 0 M -10.962 -12.6 L -10.962 17.473 L -6.972 17.473 L -6.51 14.239 C -5.838 15.218 -4.914 16.086 -3.738 16.843 C -2.562 17.599 -1.05 17.977 .798 17.977 C 2.814 17.977 4.592 17.5 6.132 16.549 C 7.672 15.596 8.883 14.294 9.765 12.643 C 10.647 10.99 11.088 9.114 11.088 7.015 C 11.088 4.914 10.647 3.045 9.765 1.407 C 8.883 -.23 7.672 -1.519 6.132 -2.457 C 4.592 -3.395 2.8 -3.863 .756 -3.863 C -.868 -3.863 -2.303 -3.541 -3.549 -2.897 C -4.795 -2.254 -5.782 -1.344 -6.51 -.168 L -6.51 -12.6 Z "/>
<path transform="matrix(1,0,0,-1,429.4293,312.2183)" d="M 0 0 C 1.204 0 2.219 .287 3.045 .861 C 3.871 1.435 4.516 2.198 4.978 3.15 C 5.439 4.102 5.726 5.152 5.838 6.301 L .882 6.301 C -.882 6.301 -2.135 5.992 -2.877 5.376 C -3.619 4.76 -3.989 3.99 -3.989 3.066 C -3.989 2.114 -3.633 1.365 -2.919 .819 C -2.205 .273 -1.232 0 0 0 M -.882 -3.611 C -2.646 -3.611 -4.102 -3.317 -5.25 -2.729 C -6.398 -2.142 -7.252 -1.364 -7.812 -.398 C -8.372 .567 -8.651 1.624 -8.651 2.772 C -8.651 4.788 -7.868 6.385 -6.3 7.561 C -4.731 8.736 -2.492 9.324 .42 9.324 L 5.88 9.324 L 5.88 9.702 C 5.88 11.326 5.439 12.544 4.558 13.356 C 3.675 14.168 2.534 14.575 1.135 14.575 C -.099 14.575 -1.169 14.273 -2.079 13.671 C -2.989 13.069 -3.542 12.181 -3.737 11.004 L -8.189 11.004 C -8.05 12.517 -7.539 13.812 -6.656 14.89 C -5.774 15.967 -4.655 16.793 -3.297 17.368 C -1.938 17.941 -.448 18.229 1.177 18.229 C 4.088 18.229 6.343 17.465 7.938 15.939 C 9.534 14.413 10.332 12.334 10.332 9.702 L 10.332 -3.107 L 6.469 -3.107 L 6.09 .462 C 5.502 -.687 4.647 -1.652 3.528 -2.436 C 2.408 -3.219 .938 -3.611 -.882 -3.611 "/>
<path transform="matrix(1,0,0,-1,454.8394,315.8296)" d="M 0 0 C -2.045 0 -3.871 .462 -5.481 1.386 C -7.092 2.31 -8.352 3.591 -9.262 5.229 C -10.172 6.866 -10.626 8.764 -10.626 10.92 C -10.626 13.075 -10.172 14.973 -9.262 16.61 C -8.352 18.249 -7.092 19.53 -5.481 20.454 C -3.871 21.378 -2.045 21.84 0 21.84 C 2.576 21.84 4.738 21.168 6.488 19.824 C 8.238 18.48 9.365 16.659 9.869 14.363 L 5.207 14.363 C 4.928 15.512 4.311 16.407 3.359 17.052 C 2.408 17.696 1.287 18.018 0 18.018 C -1.092 18.018 -2.101 17.745 -3.024 17.199 C -3.948 16.652 -4.69 15.854 -5.25 14.805 C -5.811 13.755 -6.09 12.459 -6.09 10.92 C -6.09 9.38 -5.811 8.085 -5.25 7.034 C -4.69 5.984 -3.948 5.18 -3.024 4.62 C -2.101 4.06 -1.092 3.779 0 3.779 C 1.287 3.779 2.408 4.102 3.359 4.746 C 4.311 5.39 4.928 6.3 5.207 7.476 L 9.869 7.476 C 9.393 5.235 8.273 3.43 6.51 2.058 C 4.746 .686 2.576 0 0 0 "/>
<path transform="matrix(1,0,0,-1,479.2828,297.64363)" d="M 0 0 C -1.484 0 -2.8 -.441 -3.947 -1.324 C -5.096 -2.206 -5.796 -3.529 -6.048 -5.292 L 5.712 -5.292 C 5.628 -3.668 5.054 -2.38 3.99 -1.428 C 2.926 -.477 1.597 0 0 0 M 0 -18.186 C -2.044 -18.186 -3.857 -17.731 -5.438 -16.822 C -7.021 -15.912 -8.26 -14.645 -9.155 -13.02 C -10.052 -11.397 -10.5 -9.506 -10.5 -7.35 C -10.5 -5.167 -10.059 -3.249 -9.177 -1.596 C -8.295 .056 -7.062 1.344 -5.48 2.268 C -3.899 3.192 -2.058 3.654 .042 3.654 C 2.086 3.654 3.864 3.198 5.376 2.289 C 6.889 1.378 8.064 .168 8.904 -1.344 C 9.744 -2.856 10.164 -4.523 10.164 -6.342 C 10.164 -6.623 10.157 -6.923 10.144 -7.246 C 10.129 -7.568 10.108 -7.924 10.08 -8.316 L -6.132 -8.316 C -5.992 -10.333 -5.327 -11.866 -4.137 -12.916 C -2.947 -13.965 -1.568 -14.491 0 -14.491 C 1.261 -14.491 2.317 -14.204 3.171 -13.629 C 4.025 -13.056 4.662 -12.279 5.082 -11.298 L 9.534 -11.298 C 8.974 -13.258 7.861 -14.897 6.195 -16.212 C 4.529 -17.529 2.464 -18.186 0 -18.186 "/>
<path transform="matrix(1,0,0,-1,0,595.276)" d="M 252.191 265.35 L 255.719 265.35 L 255.719 235.951 L 252.191 235.951 Z "/>
<path transform="matrix(1,0,0,-1,261.7252,359.32569)" d="M 0 0 L 0 20.832 L 3.192 20.832 L 3.402 17.094 C 4.074 18.409 5.04 19.445 6.3 20.202 C 7.56 20.958 8.988 21.336 10.584 21.336 C 13.048 21.336 15.015 20.586 16.485 19.089 C 17.955 17.591 18.69 15.288 18.69 12.18 L 18.69 0 L 15.162 0 L 15.162 11.802 C 15.162 16.142 13.37 18.312 9.786 18.312 C 7.994 18.312 6.503 17.661 5.313 16.358 C 4.123 15.057 3.528 13.201 3.528 10.794 L 3.528 0 Z "/>
<path transform="matrix(1,0,0,-1,285.7486,359.32569)" d="M 0 0 L 0 20.832 L 3.192 20.832 L 3.402 17.094 C 4.074 18.409 5.04 19.445 6.3 20.202 C 7.56 20.958 8.988 21.336 10.584 21.336 C 13.048 21.336 15.015 20.586 16.485 19.089 C 17.955 17.591 18.69 15.288 18.69 12.18 L 18.69 0 L 15.162 0 L 15.162 11.802 C 15.162 16.142 13.37 18.312 9.786 18.312 C 7.994 18.312 6.503 17.661 5.313 16.358 C 4.123 15.057 3.528 13.201 3.528 10.794 L 3.528 0 Z "/>
<path transform="matrix(1,0,0,-1,319.2642,356.8062)" d="M 0 0 C 1.204 0 2.324 .294 3.36 .882 C 4.396 1.471 5.235 2.353 5.88 3.528 C 6.523 4.704 6.846 6.16 6.846 7.896 C 6.846 9.632 6.531 11.088 5.901 12.265 C 5.271 13.44 4.437 14.322 3.402 14.91 C 2.366 15.498 1.26 15.792 .084 15.792 C -1.12 15.792 -2.241 15.498 -3.276 14.91 C -4.312 14.322 -5.152 13.44 -5.796 12.265 C -6.44 11.088 -6.762 9.632 -6.762 7.896 C -6.762 6.16 -6.44 4.704 -5.796 3.528 C -5.152 2.353 -4.319 1.471 -3.297 .882 C -2.275 .294 -1.176 0 0 0 M 0 -3.023 C -1.96 -3.023 -3.724 -2.575 -5.292 -1.68 C -6.86 -.784 -8.1 .483 -9.009 2.121 C -9.919 3.759 -10.374 5.684 -10.374 7.896 C -10.374 10.107 -9.912 12.033 -8.988 13.671 C -8.064 15.31 -6.812 16.576 -5.229 17.473 C -3.647 18.368 -1.876 18.816 .084 18.816 C 2.043 18.816 3.808 18.368 5.376 17.473 C 6.944 16.576 8.183 15.31 9.093 13.671 C 10.002 12.033 10.458 10.107 10.458 7.896 C 10.458 5.684 9.996 3.759 9.072 2.121 C 8.148 .483 6.895 -.784 5.313 -1.68 C 3.73 -2.575 1.959 -3.023 0 -3.023 "/>
<path transform="matrix(1,0,0,-1,339.5919,359.32569)" d="M 0 0 L -7.896 20.832 L -4.2 20.832 L 2.058 3.401 L 8.358 20.832 L 11.97 20.832 L 4.074 0 Z "/>
<path transform="matrix(1,0,0,-1,361.8941,356.8482)" d="M 0 0 C 1.344 0 2.499 .35 3.465 1.05 C 4.431 1.75 5.166 2.66 5.67 3.78 C 6.174 4.899 6.426 6.076 6.426 7.309 L 6.426 7.351 L 1.092 7.351 C -.98 7.351 -2.443 6.993 -3.297 6.279 C -4.151 5.565 -4.578 4.676 -4.578 3.612 C -4.578 2.521 -4.179 1.645 -3.381 .987 C -2.583 .329 -1.456 0 0 0 M -.546 -2.981 C -2.282 -2.981 -3.724 -2.688 -4.872 -2.1 C -6.021 -1.512 -6.874 -.729 -7.434 .252 C -7.995 1.232 -8.274 2.296 -8.274 3.444 C -8.274 5.572 -7.462 7.21 -5.838 8.358 C -4.214 9.506 -2.002 10.08 .798 10.08 L 6.426 10.08 L 6.426 10.332 C 6.426 12.152 5.95 13.531 4.998 14.469 C 4.046 15.407 2.772 15.876 1.176 15.876 C -.196 15.876 -1.379 15.533 -2.373 14.848 C -3.367 14.161 -3.99 13.16 -4.242 11.844 L -7.854 11.844 C -7.714 13.356 -7.203 14.63 -6.321 15.666 C -5.439 16.702 -4.34 17.493 -3.024 18.039 C -1.708 18.585 -.309 18.858 1.176 18.858 C 4.088 18.858 6.279 18.081 7.749 16.527 C 9.219 14.974 9.954 12.908 9.954 10.332 L 9.954 -2.478 L 6.804 -2.478 L 6.594 1.26 C 6.006 .084 5.145 -.917 4.011 -1.743 C 2.877 -2.568 1.358 -2.981 -.546 -2.981 "/>
<path transform="matrix(1,0,0,-1,384.7838,359.32569)" d="M 0 0 C -1.904 0 -3.402 .462 -4.494 1.386 C -5.586 2.31 -6.132 3.976 -6.132 6.384 L -6.132 17.85 L -9.744 17.85 L -9.744 20.832 L -6.132 20.832 L -5.67 25.83 L -2.604 25.83 L -2.604 20.832 L 3.528 20.832 L 3.528 17.85 L -2.604 17.85 L -2.604 6.384 C -2.604 5.067 -2.338 4.179 -1.806 3.717 C -1.274 3.255 -.336 3.023 1.008 3.023 L 3.192 3.023 L 3.192 0 Z "/>
<path transform="matrix(1,0,0,-1,0,595.276)" d="M 393.184 256.782 L 396.712 256.782 L 396.712 235.95001 L 393.184 235.95001 Z M 394.948 261.402 C 394.248 261.402 393.667 261.633 393.205 262.095 C 392.743 262.557 392.512 263.138 392.512 263.838 C 392.512 264.51 392.743 265.069 393.205 265.518 C 393.667 265.966 394.248 266.191 394.948 266.191 C 395.62 266.191 396.193 265.966 396.67 265.518 C 397.146 265.069 397.384 264.51 397.384 263.838 C 397.384 263.138 397.146 262.557 396.67 262.095 C 396.193 261.633 395.62 261.402 394.948 261.402 "/>
<path transform="matrix(1,0,0,-1,412.336,356.8062)" d="M 0 0 C 1.204 0 2.324 .294 3.36 .882 C 4.396 1.471 5.235 2.353 5.88 3.528 C 6.523 4.704 6.846 6.16 6.846 7.896 C 6.846 9.632 6.531 11.088 5.901 12.265 C 5.271 13.44 4.437 14.322 3.402 14.91 C 2.366 15.498 1.26 15.792 .084 15.792 C -1.12 15.792 -2.241 15.498 -3.276 14.91 C -4.312 14.322 -5.152 13.44 -5.796 12.265 C -6.44 11.088 -6.762 9.632 -6.762 7.896 C -6.762 6.16 -6.44 4.704 -5.796 3.528 C -5.152 2.353 -4.319 1.471 -3.297 .882 C -2.275 .294 -1.176 0 0 0 M 0 -3.023 C -1.96 -3.023 -3.724 -2.575 -5.292 -1.68 C -6.86 -.784 -8.1 .483 -9.009 2.121 C -9.919 3.759 -10.374 5.684 -10.374 7.896 C -10.374 10.107 -9.912 12.033 -8.988 13.671 C -8.064 15.31 -6.812 16.576 -5.229 17.473 C -3.647 18.368 -1.876 18.816 .084 18.816 C 2.043 18.816 3.808 18.368 5.376 17.473 C 6.944 16.576 8.183 15.31 9.093 13.671 C 10.002 12.033 10.458 10.107 10.458 7.896 C 10.458 5.684 9.996 3.759 9.072 2.121 C 8.148 .483 6.895 -.784 5.313 -1.68 C 3.73 -2.575 1.959 -3.023 0 -3.023 "/>
<path transform="matrix(1,0,0,-1,427.7076,359.32569)" d="M 0 0 L 0 20.832 L 3.191 20.832 L 3.401 17.094 C 4.074 18.409 5.04 19.445 6.3 20.202 C 7.56 20.958 8.988 21.336 10.584 21.336 C 13.048 21.336 15.015 20.586 16.484 19.089 C 17.955 17.591 18.689 15.288 18.689 12.18 L 18.689 0 L 15.162 0 L 15.162 11.802 C 15.162 16.142 13.369 18.312 9.786 18.312 C 7.993 18.312 6.503 17.661 5.312 16.358 C 4.122 15.057 3.527 13.201 3.527 10.794 L 3.527 0 Z "/>
<path transform="matrix(1,0,0,-1,475.9644,359.8296)" d="M 0 0 C -2.884 0 -5.369 .636 -7.455 1.911 C -9.541 3.185 -11.158 4.962 -12.306 7.245 C -13.454 9.526 -14.028 12.18 -14.028 15.204 C -14.028 18.199 -13.454 20.838 -12.306 23.121 C -11.158 25.402 -9.541 27.187 -7.455 28.476 C -5.369 29.764 -2.884 30.407 0 30.407 C 3.36 30.407 6.097 29.603 8.211 27.992 C 10.325 26.382 11.676 24.135 12.264 21.252 L 8.358 21.252 C 7.91 23.071 6.993 24.534 5.607 25.641 C 4.221 26.746 2.352 27.3 0 27.3 C -2.1 27.3 -3.935 26.816 -5.502 25.851 C -7.07 24.885 -8.281 23.499 -9.135 21.692 C -9.989 19.887 -10.416 17.724 -10.416 15.204 C -10.416 12.684 -9.989 10.521 -9.135 8.715 C -8.281 6.908 -7.07 5.522 -5.502 4.557 C -3.935 3.591 -2.1 3.107 0 3.107 C 2.352 3.107 4.221 3.646 5.607 4.725 C 6.993 5.802 7.91 7.237 8.358 9.029 L 12.264 9.029 C 11.676 6.201 10.325 3.989 8.211 2.394 C 6.097 .798 3.36 0 0 0 "/>
<path transform="matrix(1,0,0,-1,502.4654,340.9722)" d="M 0 0 C -1.68 0 -3.171 -.511 -4.473 -1.533 C -5.774 -2.556 -6.524 -4.046 -6.72 -6.006 L 6.385 -6.006 C 6.301 -4.13 5.656 -2.66 4.452 -1.596 C 3.248 -.532 1.765 0 0 0 M 0 -18.857 C -1.988 -18.857 -3.752 -18.402 -5.292 -17.493 C -6.832 -16.583 -8.043 -15.316 -8.925 -13.691 C -9.807 -12.068 -10.248 -10.15 -10.248 -7.937 C -10.248 -5.754 -9.813 -3.843 -8.945 -2.205 C -8.078 -.566 -6.866 .707 -5.312 1.617 C -3.759 2.526 -1.96 2.982 .084 2.982 C 2.101 2.982 3.844 2.526 5.313 1.617 C 6.783 .707 7.91 -.49 8.694 -1.974 C 9.478 -3.458 9.87 -5.054 9.87 -6.762 C 9.87 -7.07 9.863 -7.378 9.85 -7.686 C 9.835 -7.994 9.828 -8.344 9.828 -8.735 L -6.762 -8.735 C -6.678 -10.332 -6.307 -11.654 -5.648 -12.705 C -4.991 -13.755 -4.165 -14.546 -3.171 -15.078 C -2.177 -15.61 -1.12 -15.876 0 -15.876 C 1.456 -15.876 2.674 -15.54 3.654 -14.868 C 4.634 -14.195 5.348 -13.286 5.796 -12.138 L 9.282 -12.138 C 8.722 -14.069 7.651 -15.673 6.069 -16.946 C 4.487 -18.222 2.464 -18.857 0 -18.857 "/>
<path transform="matrix(1,0,0,-1,516.9976,359.32569)" d="M 0 0 L 0 20.832 L 3.191 20.832 L 3.401 17.094 C 4.073 18.409 5.04 19.445 6.3 20.202 C 7.56 20.958 8.987 21.336 10.584 21.336 C 13.047 21.336 15.015 20.586 16.484 19.089 C 17.954 17.591 18.689 15.288 18.689 12.18 L 18.689 0 L 15.161 0 L 15.161 11.802 C 15.161 16.142 13.369 18.312 9.785 18.312 C 7.993 18.312 6.502 17.661 5.312 16.358 C 4.122 15.057 3.527 13.201 3.527 10.794 L 3.527 0 Z "/>
<path transform="matrix(1,0,0,-1,549.2525,359.32569)" d="M 0 0 C -1.904 0 -3.402 .462 -4.494 1.386 C -5.586 2.31 -6.132 3.976 -6.132 6.384 L -6.132 17.85 L -9.744 17.85 L -9.744 20.832 L -6.132 20.832 L -5.67 25.83 L -2.604 25.83 L -2.604 20.832 L 3.528 20.832 L 3.528 17.85 L -2.604 17.85 L -2.604 6.384 C -2.604 5.067 -2.338 4.179 -1.806 3.717 C -1.274 3.255 -.336 3.023 1.008 3.023 L 3.192 3.023 L 3.192 0 Z "/>
<path transform="matrix(1,0,0,-1,566.0533,340.9722)" d="M 0 0 C -1.68 0 -3.171 -.511 -4.473 -1.533 C -5.774 -2.556 -6.524 -4.046 -6.72 -6.006 L 6.385 -6.006 C 6.301 -4.13 5.656 -2.66 4.452 -1.596 C 3.248 -.532 1.765 0 0 0 M 0 -18.857 C -1.988 -18.857 -3.752 -18.402 -5.292 -17.493 C -6.832 -16.583 -8.043 -15.316 -8.925 -13.691 C -9.807 -12.068 -10.248 -10.15 -10.248 -7.937 C -10.248 -5.754 -9.813 -3.843 -8.945 -2.205 C -8.078 -.566 -6.866 .707 -5.312 1.617 C -3.759 2.526 -1.96 2.982 .084 2.982 C 2.101 2.982 3.844 2.526 5.313 1.617 C 6.783 .707 7.91 -.49 8.694 -1.974 C 9.478 -3.458 9.87 -5.054 9.87 -6.762 C 9.87 -7.07 9.863 -7.378 9.85 -7.686 C 9.835 -7.994 9.828 -8.344 9.828 -8.735 L -6.762 -8.735 C -6.678 -10.332 -6.307 -11.654 -5.648 -12.705 C -4.991 -13.755 -4.165 -14.546 -3.171 -15.078 C -2.177 -15.61 -1.12 -15.876 0 -15.876 C 1.456 -15.876 2.674 -15.54 3.654 -14.868 C 4.634 -14.195 5.348 -13.286 5.796 -12.138 L 9.282 -12.138 C 8.722 -14.069 7.651 -15.673 6.069 -16.946 C 4.487 -18.222 2.464 -18.857 0 -18.857 "/>
<path transform="matrix(1,0,0,-1,580.5855,359.32569)" d="M 0 0 L 0 20.832 L 3.191 20.832 L 3.485 16.842 C 4.129 18.213 5.109 19.306 6.426 20.118 C 7.741 20.93 9.365 21.336 11.298 21.336 L 11.298 17.64 L 10.332 17.64 C 9.1 17.64 7.965 17.423 6.93 16.988 C 5.894 16.555 5.067 15.819 4.451 14.784 C 3.835 13.747 3.527 12.319 3.527 10.5 L 3.527 0 Z "/>
<path transform="matrix(1,0,0,-1,255.7198,388.0796)" d="M 0 0 L 6.048 0 C 8.4 0 10.073 .497 11.067 1.491 C 12.061 2.484 12.558 3.85 12.558 5.586 C 12.558 7.35 12.061 8.729 11.067 9.723 C 10.073 10.717 8.4 11.214 6.048 11.214 L 0 11.214 Z M -3.528 -15.246 L -3.528 14.154 L 6.132 14.154 C 8.427 14.154 10.317 13.776 11.802 13.02 C 13.286 12.264 14.385 11.241 15.099 9.954 C 15.813 8.666 16.17 7.209 16.17 5.586 C 16.17 3.99 15.819 2.548 15.12 1.26 C 14.419 -.028 13.328 -1.058 11.844 -1.827 C 10.359 -2.598 8.456 -2.982 6.132 -2.982 L 0 -2.982 L 0 -15.246 Z "/>
<path transform="matrix(1,0,0,-1,276.2994,403.32569)" d="M 0 0 L 0 20.832 L 3.192 20.832 L 3.486 16.842 C 4.13 18.214 5.109 19.306 6.426 20.118 C 7.742 20.93 9.366 21.336 11.298 21.336 L 11.298 17.64 L 10.332 17.64 C 9.1 17.64 7.966 17.423 6.93 16.989 C 5.894 16.555 5.067 15.819 4.452 14.784 C 3.836 13.748 3.528 12.319 3.528 10.5 L 3.528 0 Z "/>
<path transform="matrix(1,0,0,-1,0,595.276)" d="M 291.923 212.782 L 295.45103 212.782 L 295.45103 191.95 L 291.923 191.95 Z M 293.687 217.402 C 292.987 217.402 292.406 217.633 291.944 218.095 C 291.482 218.558 291.251 219.138 291.251 219.838 C 291.251 220.51 291.482 221.07 291.944 221.519 C 292.406 221.966 292.987 222.191 293.687 222.191 C 294.359 222.191 294.933 221.966 295.409 221.519 C 295.885 221.07 296.123 220.51 296.123 219.838 C 296.123 219.138 295.885 218.558 295.409 218.095 C 294.933 217.633 294.359 217.402 293.687 217.402 "/>
<path transform="matrix(1,0,0,-1,300.1553,403.32569)" d="M 0 0 L 0 2.898 L 11.592 17.892 L .21 17.892 L .21 20.832 L 15.54 20.832 L 15.54 17.934 L 3.948 2.94 L 15.75 2.94 L 15.75 0 Z "/>
<path transform="matrix(1,0,0,-1,320.567,403.32569)" d="M 0 0 L 0 20.832 L 3.192 20.832 L 3.486 16.842 C 4.13 18.214 5.109 19.306 6.426 20.118 C 7.742 20.93 9.366 21.336 11.298 21.336 L 11.298 17.64 L 10.332 17.64 C 9.1 17.64 7.966 17.423 6.93 16.989 C 5.894 16.555 5.067 15.819 4.452 14.784 C 3.836 13.748 3.528 12.319 3.528 10.5 L 3.528 0 Z "/>
<path transform="matrix(1,0,0,-1,344.3809,384.9722)" d="M 0 0 C -1.68 0 -3.171 -.511 -4.473 -1.532 C -5.775 -2.555 -6.524 -4.046 -6.72 -6.006 L 6.384 -6.006 C 6.3 -4.13 5.655 -2.66 4.452 -1.596 C 3.248 -.531 1.764 0 0 0 M 0 -18.857 C -1.989 -18.857 -3.752 -18.402 -5.292 -17.492 C -6.833 -16.583 -8.043 -15.315 -8.925 -13.691 C -9.807 -12.068 -10.248 -10.149 -10.248 -7.937 C -10.248 -5.754 -9.814 -3.843 -8.946 -2.204 C -8.079 -.566 -6.867 .707 -5.313 1.617 C -3.759 2.527 -1.96 2.982 .084 2.982 C 2.1 2.982 3.843 2.527 5.313 1.617 C 6.783 .707 7.91 -.489 8.694 -1.974 C 9.478 -3.458 9.87 -5.054 9.87 -6.762 C 9.87 -7.07 9.863 -7.378 9.849 -7.686 C 9.834 -7.994 9.828 -8.344 9.828 -8.735 L -6.762 -8.735 C -6.678 -10.331 -6.308 -11.654 -5.649 -12.704 C -4.992 -13.755 -4.166 -14.546 -3.171 -15.077 C -2.178 -15.609 -1.121 -15.876 0 -15.876 C 1.456 -15.876 2.673 -15.539 3.654 -14.867 C 4.634 -14.195 5.348 -13.286 5.796 -12.138 L 9.282 -12.138 C 8.721 -14.069 7.65 -15.673 6.069 -16.946 C 4.487 -18.221 2.463 -18.857 0 -18.857 "/>
<path transform="matrix(1,0,0,-1,358.9122,403.32569)" d="M 0 0 L 0 20.832 L 3.192 20.832 L 3.402 17.094 C 4.074 18.41 5.04 19.446 6.3 20.202 C 7.56 20.958 8.988 21.336 10.584 21.336 C 13.048 21.336 15.015 20.587 16.485 19.089 C 17.955 17.591 18.69 15.288 18.69 12.18 L 18.69 0 L 15.162 0 L 15.162 11.802 C 15.162 16.142 13.37 18.312 9.786 18.312 C 7.994 18.312 6.503 17.661 5.313 16.359 C 4.123 15.057 3.528 13.202 3.528 10.794 L 3.528 0 Z "/>
<path transform="matrix(1,0,0,-1,251.3819,249.6734)" d="M 0 0 L -2.298 0 L -2.298 29.366 L 0 29.366 C 7.684 29.366 14.868 32.787 19.711 38.752 C 30.155 51.618 45.649 58.996 62.22 58.996 L 64.519 58.996 L 64.519 29.63 L 62.22 29.63 C 54.537 29.63 47.352 26.209 42.509 20.243 C 32.065 7.378 16.571 0 0 0 " fill="#ff5500"/>
<path transform="matrix(1,0,0,-1,318.1988,249.6734)" d="M 0 0 L -2.298 0 L -2.298 29.366 L 0 29.366 C 7.684 29.366 14.868 32.787 19.711 38.752 C 30.156 51.618 45.649 58.996 62.221 58.996 L 64.519 58.996 L 64.519 29.63 L 62.221 29.63 C 54.537 29.63 47.353 26.209 42.51 20.244 C 32.065 7.378 16.571 0 0 0 " fill="#ff5500"/>
<path transform="matrix(1,0,0,-1,0,595.276)" d="M 412.084 345.631 L 382.71803 345.631 L 382.71803 374.997 L 412.084 374.997 Z " fill="#ff5500"/>
</g>
</g>
</g>
</svg>